core_cm4.h:1467:22:NVIC_EnableIRQ	16	static
core_cm4.h:1520:22:NVIC_ClearPendingIRQ	16	static
core_cm4.h:1550:22:NVIC_SetPriority	16	static
core_cm4.h:1677:26:SysTick_Config	16	static
scu_18xx_43xx.h:135:20:Chip_SCU_PinMuxSet	16	static
scu_18xx_43xx.h:150:20:Chip_SCU_PinMux	24	static
gpio_18xx_43xx.h:95:20:Chip_GPIO_SetPinState	16	static
gpio_18xx_43xx.h:121:20:Chip_GPIO_GetPinState	16	static
gpio_18xx_43xx.h:146:20:Chip_GPIO_SetPinDIROutput	16	static
gpio_18xx_43xx.h:158:20:Chip_GPIO_SetPinDIRInput	16	static
gpio_18xx_43xx.h:445:20:Chip_GPIO_SetPinToggle	16	static
timer_18xx_43xx.h:111:20:Chip_TIMER_MatchPending	16	static
timer_18xx_43xx.h:136:20:Chip_TIMER_ClearMatch	16	static
timer_18xx_43xx.h:159:20:Chip_TIMER_Enable	16	static
timer_18xx_43xx.h:170:20:Chip_TIMER_Disable	16	static
timer_18xx_43xx.h:217:20:Chip_TIMER_SetMatch	24	static
timer_18xx_43xx.h:248:20:Chip_TIMER_MatchEnableInt	16	static
timer_18xx_43xx.h:270:20:Chip_TIMER_ResetOnMatchEnable	16	static
timer_18xx_43xx.h:305:20:Chip_TIMER_StopOnMatchDisable	16	static
systick.c:73:6:Configuracion_IO	8	static
systick.c:91:6:Configuracion_Timers	8	static
systick.c:122:6:TIMER0_IRQHandler	8	static
systick.c:159:6:TIMER1_IRQHandler	8	static
systick.c:205:6:SysTick_Handler	4	static
systick.c:226:5:main	8	static
